$ 1 0.01 0.9487735836358526 50 5 50
165 656 320 800 320 2 0
R 816 288 816 192 0 0 40 5 0 0 0.5
c 720 480 720 528 0 1e-8 3.3333333333333335
g 720 528 720 560 0
w 784 352 816 352 0
w 816 352 816 288 0
w 816 288 720 288 0
r 544 272 544 208 0 1000
w 496 208 544 208 0
d 496 352 544 352 2 default
w 656 352 544 352 0
w 544 208 640 208 0
w 640 208 640 288 0
w 640 288 720 288 0
r 496 416 544 416 0 100000
w 496 416 496 352 0
w 608 416 656 416 0
w 656 448 656 416 0
w 608 416 608 480 0
c 608 480 608 528 0 0.000001 2.7954716890251636
w 720 528 608 528 0
t 544 272 496 272 0 1 -4.950261550980475 -0.2553313884459244 100
w 496 256 496 208 0
w 1232 272 1232 224 0
w 1200 272 1200 240 0
w 1168 272 1168 256 0
w 1072 272 1072 208 0
w 944 272 944 208 0
163 912 352 976 352 0 10 0 0 0 0 0 0 5 0 0 0
w 1136 272 1072 272 0
w 1040 272 1040 256 0
w 1040 256 1040 208 0
w 1168 256 1040 256 0
w 1008 272 1008 240 0
w 1008 240 1008 208 0
w 1200 240 1008 240 0
w 976 272 976 224 0
w 976 224 976 208 0
162 944 208 944 160 2 default-led 1 0 0 0.01
162 976 208 976 160 2 default-led 1 0 0 0.01
162 1008 208 1008 160 2 default-led 1 0 0 0.01
162 1040 208 1040 160 2 default-led 1 0 0 0.01
162 1072 208 1072 160 2 default-led 1 0 0 0.01
w 1072 160 1040 160 0
w 1040 160 1008 160 0
w 1008 160 976 160 0
w 976 160 944 160 0
g 896 160 896 192 0
r 944 160 896 160 0 1000
d 976 320 976 272 2 default
d 1008 320 1008 272 2 default
d 1040 320 1040 272 2 default
d 1072 320 1072 272 2 default
d 1136 320 1136 272 2 default
d 1168 320 1168 272 2 default
w 944 320 944 272 0
w 544 272 544 352 0
w 496 288 496 352 0
w 784 384 912 384 0
w 816 288 848 288 0
w 1232 592 1232 416 0
w 496 208 480 208 0
w 480 208 480 592 0
w 480 592 1232 592 0
w 976 224 1232 224 0
d 1200 320 1200 272 2 default
d 1232 320 1232 272 2 default
w 1104 320 1104 208 0
w 1072 160 1104 160 0
162 1104 208 1104 160 2 default-led 1 0 0 0.01
r 544 416 608 416 0 5600
o 58 1 0 36875 5 0.00009765625 0 2 58 3
o 18 1 0 4099 5 0.00009765625 1 2 18 3
