<?xml version="1.0" encoding="UTF-8" standalone="no"?>
<!-- Created with Inkscape (http://www.inkscape.org/) -->

<svg
   xmlns:dc="http://purl.org/dc/elements/1.1/"
   xmlns:cc="http://creativecommons.org/ns#"
   xmlns:rdf="http://www.w3.org/1999/02/22-rdf-syntax-ns#"
   xmlns:svg="http://www.w3.org/2000/svg"
   xmlns="http://www.w3.org/2000/svg"
   xmlns:sodipodi="http://sodipodi.sourceforge.net/DTD/sodipodi-0.dtd"
   xmlns:inkscape="http://www.inkscape.org/namespaces/inkscape"
   width="110mm"
   height="46mm"
   viewBox="0 0 389.76378 162.99213"
   id="svg4258"
   version="1.1"
   inkscape:version="0.91 r13725"
   sodipodi:docname="layer_copper.svg">
  <defs
     id="defs4260" />
  <sodipodi:namedview
     id="base"
     pagecolor="#ffffff"
     bordercolor="#666666"
     borderopacity="1.0"
     inkscape:pageopacity="0.0"
     inkscape:pageshadow="2"
     inkscape:zoom="1.979899"
     inkscape:cx="67.272411"
     inkscape:cy="70.842483"
     inkscape:document-units="px"
     inkscape:current-layer="layer2"
     showgrid="true"
     inkscape:window-width="1920"
     inkscape:window-height="1147"
     inkscape:window-x="0"
     inkscape:window-y="24"
     inkscape:window-maximized="1"
     inkscape:snap-bbox="true"
     inkscape:bbox-nodes="false"
     inkscape:object-nodes="true"
     fit-margin-top="0"
     fit-margin-left="0"
     fit-margin-right="0"
     fit-margin-bottom="0">
    <inkscape:grid
       type="xygrid"
       id="grid4266"
       units="mm"
       spacingx="3.5433071"
       spacingy="3.5433072"
       originx="-248.03149"
       originy="-283.4646" />
  </sodipodi:namedview>
  <metadata
     id="metadata4263">
    <rdf:RDF>
      <cc:Work
         rdf:about="">
        <dc:format>image/svg+xml</dc:format>
        <dc:type
           rdf:resource="http://purl.org/dc/dcmitype/StillImage" />
        <dc:title></dc:title>
      </cc:Work>
    </rdf:RDF>
  </metadata>
  <g
     inkscape:label="substrate"
     inkscape:groupmode="layer"
     id="layer1"
     sodipodi:insensitive="true"
     transform="translate(-248.0315,-605.90548)">
    <path
       style="fill:#917c6f;fill-opacity:1;fill-rule:evenodd;stroke:none;stroke-width:1px;stroke-linecap:butt;stroke-linejoin:miter;stroke-opacity:1"
       d="m 248.0315,733.46454 283.46456,0 0,-35.43307 -283.46456,0 z"
       id="path4268"
       inkscape:connector-curvature="0" />
    <path
       style="fill:#6c5d53;fill-rule:evenodd;stroke:none;stroke-width:1px;stroke-linecap:butt;stroke-linejoin:miter;stroke-opacity:1"
       d="m 531.49606,733.46454 106.29921,-53.14961 0,-35.43307 -106.29921,53.14961 0,0 z"
       id="path4272"
       inkscape:connector-curvature="0" />
    <path
       style="fill:#ac9d93;fill-rule:evenodd;stroke:none;stroke-width:1px;stroke-linecap:butt;stroke-linejoin:miter;stroke-opacity:1"
       d="m 248.0315,698.03147 106.29921,-53.14961 283.46456,0 -106.29921,53.14961 z"
       id="path4274"
       inkscape:connector-curvature="0"
       sodipodi:nodetypes="ccccc" />
  </g>
  <g
     inkscape:groupmode="layer"
     id="layer2"
     inkscape:label="copper"
     sodipodi:insensitive="true"
     transform="translate(-248.0315,-605.90548)">
    <g
       id="g4316">
      <path
         inkscape:connector-curvature="0"
         id="path4310"
         d="m 248.0315,698.03147 17.71653,0 0,-17.71654 -17.71653,0 z"
         style="fill:#aa4400;fill-rule:evenodd;stroke:none;stroke-width:1px;stroke-linecap:butt;stroke-linejoin:miter;stroke-opacity:1" />
      <path
         inkscape:connector-curvature="0"
         id="path4312"
         d="m 248.0315,680.31493 106.29921,-53.1496 17.71653,0 -106.29921,53.1496 -17.71653,0 0,0"
         style="fill:#d45500;fill-rule:evenodd;stroke:none;stroke-width:1px;stroke-linecap:butt;stroke-linejoin:miter;stroke-opacity:1" />
      <path
         inkscape:connector-curvature="0"
         id="path4314"
         d="m 265.74803,698.03147 106.29921,-53.14961 0,-17.71653 -106.29921,53.1496 z"
         style="fill:#803300;fill-rule:evenodd;stroke:none;stroke-width:1px;stroke-linecap:butt;stroke-linejoin:miter;stroke-opacity:1" />
    </g>
    <g
       id="g4321"
       transform="translate(35.433066,5.2478072e-8)">
      <path
         style="fill:#aa4400;fill-rule:evenodd;stroke:none;stroke-width:1px;stroke-linecap:butt;stroke-linejoin:miter;stroke-opacity:1"
         d="m 248.0315,698.03147 17.71653,0 0,-17.71654 -17.71653,0 z"
         id="path4323"
         inkscape:connector-curvature="0" />
      <path
         style="fill:#d45500;fill-rule:evenodd;stroke:none;stroke-width:1px;stroke-linecap:butt;stroke-linejoin:miter;stroke-opacity:1"
         d="m 248.0315,680.31493 106.29921,-53.1496 17.71653,0 -106.29921,53.1496 -17.71653,0 0,0"
         id="path4325"
         inkscape:connector-curvature="0" />
      <path
         style="fill:#803300;fill-rule:evenodd;stroke:none;stroke-width:1px;stroke-linecap:butt;stroke-linejoin:miter;stroke-opacity:1"
         d="m 265.74803,698.03147 106.29921,-53.14961 0,-17.71653 -106.29921,53.1496 z"
         id="path4327"
         inkscape:connector-curvature="0" />
    </g>
    <g
       transform="translate(106.29921,4.4242427e-6)"
       id="g4329">
      <path
         inkscape:connector-curvature="0"
         id="path4331"
         d="m 248.0315,698.03147 17.71653,0 0,-17.71654 -17.71653,0 z"
         style="fill:#aa4400;fill-rule:evenodd;stroke:none;stroke-width:1px;stroke-linecap:butt;stroke-linejoin:miter;stroke-opacity:1" />
      <path
         inkscape:connector-curvature="0"
         id="path4333"
         d="m 248.0315,680.31493 106.29921,-53.1496 17.71653,0 -106.29921,53.1496 -17.71653,0 0,0"
         style="fill:#d45500;fill-rule:evenodd;stroke:none;stroke-width:1px;stroke-linecap:butt;stroke-linejoin:miter;stroke-opacity:1" />
      <path
         inkscape:connector-curvature="0"
         id="path4335"
         d="m 265.74803,698.03147 106.29921,-53.14961 0,-17.71653 -106.29921,53.1496 z"
         style="fill:#803300;fill-rule:evenodd;stroke:none;stroke-width:1px;stroke-linecap:butt;stroke-linejoin:miter;stroke-opacity:1" />
    </g>
    <g
       id="g4337"
       transform="translate(106.29921,4.4242427e-6)">
      <path
         style="fill:#aa4400;fill-rule:evenodd;stroke:none;stroke-width:1px;stroke-linecap:butt;stroke-linejoin:miter;stroke-opacity:1"
         d="m 248.0315,698.03147 17.71653,0 0,-17.71654 -17.71653,0 z"
         id="path4339"
         inkscape:connector-curvature="0" />
      <path
         style="fill:#d45500;fill-rule:evenodd;stroke:none;stroke-width:1px;stroke-linecap:butt;stroke-linejoin:miter;stroke-opacity:1"
         d="m 248.0315,680.31493 106.29921,-53.1496 17.71653,0 -106.29921,53.1496 -17.71653,0 0,0"
         id="path4341"
         inkscape:connector-curvature="0" />
      <path
         style="fill:#803300;fill-rule:evenodd;stroke:none;stroke-width:1px;stroke-linecap:butt;stroke-linejoin:miter;stroke-opacity:1"
         d="m 265.74803,698.03147 106.29921,-53.14961 0,-17.71653 -106.29921,53.1496 z"
         id="path4343"
         inkscape:connector-curvature="0" />
    </g>
    <g
       transform="translate(212.59842,5.2478072e-8)"
       id="g4345">
      <path
         inkscape:connector-curvature="0"
         id="path4347"
         d="m 248.0315,698.03147 17.71653,0 0,-17.71654 -17.71653,0 z"
         style="fill:#aa4400;fill-rule:evenodd;stroke:none;stroke-width:1px;stroke-linecap:butt;stroke-linejoin:miter;stroke-opacity:1" />
      <path
         inkscape:connector-curvature="0"
         id="path4349"
         d="m 248.0315,680.31493 106.29921,-53.1496 17.71653,0 -106.29921,53.1496 -17.71653,0 0,0"
         style="fill:#d45500;fill-rule:evenodd;stroke:none;stroke-width:1px;stroke-linecap:butt;stroke-linejoin:miter;stroke-opacity:1" />
      <path
         inkscape:connector-curvature="0"
         id="path4351"
         d="m 265.74803,698.03147 106.29921,-53.14961 0,-17.71653 -106.29921,53.1496 z"
         style="fill:#803300;fill-rule:evenodd;stroke:none;stroke-width:1px;stroke-linecap:butt;stroke-linejoin:miter;stroke-opacity:1" />
    </g>
    <g
       id="g4353"
       transform="translate(248.0315,5.2478072e-8)">
      <path
         style="fill:#aa4400;fill-rule:evenodd;stroke:none;stroke-width:1px;stroke-linecap:butt;stroke-linejoin:miter;stroke-opacity:1"
         d="m 248.0315,698.03147 17.71653,0 0,-17.71654 -17.71653,0 z"
         id="path4355"
         inkscape:connector-curvature="0" />
      <path
         style="fill:#d45500;fill-rule:evenodd;stroke:none;stroke-width:1px;stroke-linecap:butt;stroke-linejoin:miter;stroke-opacity:1"
         d="m 248.0315,680.31493 106.29921,-53.1496 17.71653,0 -106.29921,53.1496 -17.71653,0 0,0"
         id="path4357"
         inkscape:connector-curvature="0" />
      <path
         style="fill:#803300;fill-rule:evenodd;stroke:none;stroke-width:1px;stroke-linecap:butt;stroke-linejoin:miter;stroke-opacity:1"
         d="m 265.74803,698.03147 106.29921,-53.14961 0,-17.71653 -106.29921,53.1496 z"
         id="path4359"
         inkscape:connector-curvature="0" />
    </g>
    <g
       id="g4361"
       transform="translate(141.73228,5.2478072e-8)">
      <path
         style="fill:#aa4400;fill-rule:evenodd;stroke:none;stroke-width:1px;stroke-linecap:butt;stroke-linejoin:miter;stroke-opacity:1"
         d="m 248.0315,698.03147 17.71653,0 0,-17.71654 -17.71653,0 z"
         id="path4363"
         inkscape:connector-curvature="0" />
      <path
         style="fill:#d45500;fill-rule:evenodd;stroke:none;stroke-width:1px;stroke-linecap:butt;stroke-linejoin:miter;stroke-opacity:1"
         d="m 248.0315,680.31493 106.29921,-53.1496 17.71653,0 -106.29921,53.1496 -17.71653,0 0,0"
         id="path4365"
         inkscape:connector-curvature="0" />
      <path
         style="fill:#803300;fill-rule:evenodd;stroke:none;stroke-width:1px;stroke-linecap:butt;stroke-linejoin:miter;stroke-opacity:1"
         d="m 265.74803,698.03147 106.29921,-53.14961 0,-17.71653 -106.29921,53.1496 z"
         id="path4367"
         inkscape:connector-curvature="0" />
    </g>
    <g
       id="g4380">
      <path
         sodipodi:nodetypes="ccccc"
         inkscape:connector-curvature="0"
         id="path4371"
         d="m 248.0315,751.18108 283.46456,0 0,-17.71654 -283.46456,0 z"
         style="fill:#aa4400;fill-rule:evenodd;stroke:none;stroke-width:1px;stroke-linecap:butt;stroke-linejoin:miter;stroke-opacity:1" />
      <path
         inkscape:connector-curvature="0"
         id="path4375"
         d="m 531.49606,751.18108 106.29921,-53.14961 0,-17.71653 -106.29921,53.1496 z"
         style="fill:#803300;fill-rule:evenodd;stroke:none;stroke-width:1px;stroke-linecap:butt;stroke-linejoin:miter;stroke-opacity:1" />
    </g>
  </g>
  <g
     inkscape:groupmode="layer"
     id="layer3"
     inkscape:label="soldermask"
     sodipodi:insensitive="true"
     transform="translate(-248.0315,-605.90548)"
     style="display:none">
    <path
       style="fill:#668000;fill-rule:evenodd;stroke:none;stroke-width:1px;stroke-linecap:butt;stroke-linejoin:miter;stroke-opacity:1"
       d="m 248.0315,680.31493 17.71653,0 0,17.71654 17.71654,0 0,-17.71654 17.71653,0 0,17.71654 53.14961,0 0,-17.71654 17.71653,0 0,17.71654 17.71654,0 0,-17.71654 17.71653,0 0,17.71654 53.14961,0 0,-17.71654 17.71653,0 0,17.71654 17.71654,0 0,-17.71654 17.71654,0 0,17.71654 17.71653,0 0,-35.43307 -106.29921,0 -17.71654,17.71653 -17.71653,0 -17.71654,-17.71653 -124.01574,0 0,17.71653 0,0 0,0"
       id="path4404"
       inkscape:connector-curvature="0"
       sodipodi:nodetypes="ccccccccccccccccccccccccccccccccc" />
    <path
       style="fill:#445500;fill-rule:evenodd;stroke:none;stroke-width:1px;stroke-linecap:butt;stroke-linejoin:miter;stroke-opacity:1"
       d="m 531.49606,698.03147 106.29921,-53.14961 0,-35.43307 -106.29921,53.14961 z"
       id="path4425"
       inkscape:connector-curvature="0" />
    <path
       style="fill:#88aa00;fill-rule:evenodd;stroke:none;stroke-width:1px;stroke-linecap:butt;stroke-linejoin:miter;stroke-opacity:1"
       d="m 248.0315,662.5984 106.29921,-53.14961 124.01574,0 -106.29921,53.14961 z"
       id="path4427"
       inkscape:connector-curvature="0"
       sodipodi:nodetypes="ccccc" />
    <path
       style="fill:#445500;fill-rule:evenodd;stroke:none;stroke-width:1px;stroke-linecap:butt;stroke-linejoin:miter;stroke-opacity:1"
       d="m 478.34645,609.44879 17.71654,17.71654 -106.29921,53.1496 -17.71654,-17.71653 z"
       id="path4429"
       inkscape:connector-curvature="0" />
    <path
       style="fill:#88aa00;fill-rule:evenodd;stroke:none;stroke-width:1px;stroke-linecap:butt;stroke-linejoin:miter;stroke-opacity:1"
       d="m 531.49606,609.44879 -106.29921,53.14961 106.29921,0 106.29921,-53.14961 z"
       id="path4431"
       inkscape:connector-curvature="0" />
    <path
       style="fill:#668000;fill-rule:evenodd;stroke:none;stroke-width:1px;stroke-linecap:butt;stroke-linejoin:miter;stroke-opacity:1"
       d="m 248.0315,751.18108 0,17.71653 283.46456,0 0,-17.71653 z"
       id="path4433"
       inkscape:connector-curvature="0" />
    <path
       style="fill:#445500;fill-rule:evenodd;stroke:none;stroke-width:1px;stroke-linecap:butt;stroke-linejoin:miter;stroke-opacity:1"
       d="m 531.49606,768.89761 106.29921,-53.1496 0,-17.71654 -106.29921,53.14961 z"
       id="path4435"
       inkscape:connector-curvature="0" />
  </g>
  <g
     inkscape:groupmode="layer"
     id="layer4"
     inkscape:label="silkscreen"
     sodipodi:insensitive="true"
     transform="translate(-248.0315,-605.90548)"
     style="display:none">
    <g
       id="g4529"
       transform="translate(88.582675,1.67036e-6)">
      <g
         id="g4473">
        <g
           id="g4444">
          <path
             inkscape:connector-curvature="0"
             id="path4438"
             d="m 364.96063,662.5984 -10.62992,0 0,-3.54331 10.62992,0 z"
             style="fill:#999999;fill-rule:evenodd;stroke:none;stroke-width:1px;stroke-linecap:butt;stroke-linejoin:miter;stroke-opacity:1" />
          <path
             sodipodi:nodetypes="ccccc"
             inkscape:connector-curvature="0"
             id="path4440"
             d="m 354.33071,659.05509 106.29921,-53.14961 10.62992,0 -106.29921,53.14961 z"
             style="fill:#cccccc;fill-rule:evenodd;stroke:none;stroke-width:1px;stroke-linecap:butt;stroke-linejoin:miter;stroke-opacity:1" />
          <path
             inkscape:connector-curvature="0"
             id="path4442"
             d="m 471.25984,605.90548 0,3.54331 -106.29921,53.14961 0,-3.54331 z"
             style="fill:#808080;fill-rule:evenodd;stroke:none;stroke-width:1px;stroke-linecap:butt;stroke-linejoin:miter;stroke-opacity:1"
             sodipodi:nodetypes="ccccc" />
        </g>
      </g>
    </g>
    <g
       transform="translate(-38.976376,-21.259838)"
       id="g4519">
      <g
         id="g4521">
        <path
           style="fill:#999999;fill-rule:evenodd;stroke:none;stroke-width:1px;stroke-linecap:butt;stroke-linejoin:miter;stroke-opacity:1"
           d="m 425.19685,662.5984 -70.86614,0 0,-3.54331 70.86614,0 z"
           id="path4523"
           inkscape:connector-curvature="0"
           sodipodi:nodetypes="ccccc" />
        <path
           style="fill:#cccccc;fill-rule:evenodd;stroke:none;stroke-width:1px;stroke-linecap:butt;stroke-linejoin:miter;stroke-opacity:1"
           d="m 354.33071,659.05509 7.08661,-3.54331 70.86614,0 -7.08661,3.54331 z"
           id="path4525"
           inkscape:connector-curvature="0"
           sodipodi:nodetypes="ccccc" />
      </g>
    </g>
    <g
       id="g4548"
       transform="translate(-17.716534,-31.88976)">
      <g
         id="g4550">
        <path
           sodipodi:nodetypes="ccccc"
           inkscape:connector-curvature="0"
           id="path4552"
           d="m 425.19685,662.5984 -70.86614,0 0,-3.54331 70.86614,0 z"
           style="fill:#999999;fill-rule:evenodd;stroke:none;stroke-width:1px;stroke-linecap:butt;stroke-linejoin:miter;stroke-opacity:1" />
        <path
           sodipodi:nodetypes="ccccc"
           inkscape:connector-curvature="0"
           id="path4554"
           d="m 354.33071,659.05509 7.08661,-3.54331 70.86614,0 -7.08661,3.54331 z"
           style="fill:#cccccc;fill-rule:evenodd;stroke:none;stroke-width:1px;stroke-linecap:butt;stroke-linejoin:miter;stroke-opacity:1" />
      </g>
    </g>
    <g
       transform="translate(-10.629923,1.6703602e-6)"
       id="g4536">
      <g
         id="g4538">
        <g
           id="g4540">
          <path
             style="fill:#999999;fill-rule:evenodd;stroke:none;stroke-width:1px;stroke-linecap:butt;stroke-linejoin:miter;stroke-opacity:1"
             d="m 364.96063,662.5984 -10.62992,0 0,-3.54331 10.62992,0 z"
             id="path4542"
             inkscape:connector-curvature="0" />
          <path
             style="fill:#cccccc;fill-rule:evenodd;stroke:none;stroke-width:1px;stroke-linecap:butt;stroke-linejoin:miter;stroke-opacity:1"
             d="m 354.33071,659.05509 106.29921,-53.14961 10.62992,0 -106.29921,53.14961 z"
             id="path4544"
             inkscape:connector-curvature="0"
             sodipodi:nodetypes="ccccc" />
          <path
             sodipodi:nodetypes="ccccc"
             style="fill:#808080;fill-rule:evenodd;stroke:none;stroke-width:1px;stroke-linecap:butt;stroke-linejoin:miter;stroke-opacity:1"
             d="m 471.25984,605.90548 0,3.54331 -106.29921,53.14961 0,-3.54331 z"
             id="path4546"
             inkscape:connector-curvature="0" />
        </g>
      </g>
    </g>
  </g>
</svg>
